{
    "name": "Max",
    "children": [
        {
            "name": "Sylvia",
            "children": [
                {"name": "Craig"},
                {"name": "Robin"},
                {"name": "Anna"}
            ]
        },
        {
            "name": "David",
            "children": [
                {"name": "Jeff"},
                {"name": "Buffy"}
            ] 
        }
    ]
}