{
  "links": [
    {
      "source": 26,
      "target": 4
    },
    {
      "source": 26,
      "target": 48
    },
    {
      "source": 26,
      "target": 50
    },
    {
      "source": 26,
      "target": 24
    },
    {
      "source": 26,
      "target": 6
    },
    {
      "source": 26,
      "target": 43
    },
    {
      "source": 43,
      "target": 46
    },
    {
      "source": 4,
      "target": 35
    },
    {
      "source": 4,
      "target": 23
    },
    {
      "source": 48,
      "target": 35
    },
    {
      "source": 48,
      "target": 56
    },
    {
      "source": 35,
      "target": 8
    },
    {
      "source": 35,
      "target": 53
    },
    {
      "source": 35,
      "target": 44
    },
    {
      "source": 56,
      "target": 9
    },
    {
      "source": 56,
      "target": 53
    },
    {
      "source": 56,
      "target": 47
    },
    {
      "source": 9,
      "target": 47
    },
    {
      "source": 9,
      "target": 14
    },
    {
      "source": 47,
      "target": 14
    },
    {
      "source": 47,
      "target": 25
    },
    {
      "source": 53,
      "target": 47
    },
    {
      "source": 8,
      "target": 53
    },
    {
      "source": 8,
      "target": 44
    },
    {
      "source": 44,
      "target": 18
    },
    {
      "source": 18,
      "target": 33
    },
    {
      "source": 18,
      "target": 13
    },
    {
      "source": 33,
      "target": 17
    },
    {
      "source": 25,
      "target": 20
    },
    {
      "source": 25,
      "target": 30
    },
    {
      "source": 25,
      "target": 2
    },
    {
      "source": 2,
      "target": 1
    },
    {
      "source": 2,
      "target": 41
    },
    {
      "source": 2,
      "target": 31
    }
  ]
}
