﻿Location_Name,Population,Tests,Test_Rate,Positives,Positive_Rate,Hospitalizations,Hospitalization_Rate,Deaths,Death_Rate,latitude,longitude,distance
Algona,3190,401,12570.53,74,2319.75,5,156.74,1,31.35,47.2791,-122.2499,24
Auburn,71740,9482,13217.17,1144,1594.65,128,178.42,25,34.85,47.3073,-122.2285,22
Beaux Arts Village,300,86,28666.67,5,1666.67,1,333.33,0,0,47.5853,-122.2013,5
Bellevue,145300,16685,11483.14,846,582.24,123,84.65,41,28.22,47.6101,-122.2015,4
Black Diamond,4525,539,11911.6,24,530.39,1,22.1,1,22.1,47.3087,-122.0032,24
Bothell,28570,3477,12170.11,165,577.53,28,98,14,49,47.7601,-122.2054,5
Boulevard Park,3723,618,16599.52,64,1719.04,6,161.16,1,26.86,47.4958,-122.3105,12
Bryn Mawr-Skyway,18347,2506,13658.91,193,1051.94,19,103.56,5,27.25,47.4938,-122.2382,11
Burien,52000,7317,14071.15,631,1213.46,85,163.46,17,32.69,47.4668,-122.3405,14
Carnation,2220,179,8063.06,7,315.32,0,0,0,0,47.6479,-121.914,12
Clyde Hill,3055,484,15842.88,18,589.2,3,98.2,1,32.73,47.6318,-122.2179,3
Cottage Lake,23955,2526,10544.77,80,333.96,9,37.57,4,16.7,47.7443,-122.0773,7
Covington,20280,2288,11282.05,184,907.3,21,103.55,3,14.79,47.3596,-122.118,19
Des Moines,31580,4291,13587.71,390,1234.96,28,88.66,4,12.67,47.4018,-122.3243,17
Duvall,7840,841,10727.04,32,408.16,0,0,1,12.76,47.7423,-121.9857,10
East Renton Highlands,11745,1370,11664.54,56,476.8,8,68.11,2,17.03,47.4848,-122.1123,12
Enumclaw,12200,1467,12024.59,103,844.26,27,221.31,23,188.52,47.2043,-121.9915,30
Fairwood,19428,2503,12883.47,122,627.96,13,66.91,6,30.88,47.4431,-122.1624,14
Fall City,2313,323,13964.55,7,302.64,1,43.23,0,0,47.5673,-121.8887,14
Federal Way,97840,12592,12869.99,1487,1519.83,138,141.05,26,26.57,47.3223,-122.3126,22
Hobart,7182,879,12238.93,21,292.4,4,55.69,2,27.85,47.4081,-121.9949,18
Hunts Point,420,94,22380.95,8,1904.76,0,0,0,0,47.6434,-122.2301,2
Issaquah,37590,5464,14535.78,258,686.35,54,143.66,36,95.77,47.5301,-122.0326,11
Kenmore,23320,3046,13061.75,144,617.5,29,124.36,9,38.59,47.7584,-122.2497,5
Kent,129800,17093,13168.72,1915,1475.35,177,136.36,49,37.75,47.3809,-122.2348,18
Kirkland,88940,10839,12186.87,605,680.23,123,138.3,62,69.71,47.6769,-122.206,0
Lake Forest Park,13250,2007,15147.17,53,400,3,22.64,0,0,47.7061,-122.284,4
Lake Holm,3254,327,10049.17,11,338.05,3,92.19,0,0,47.3096,-122.1275,22
Lake Morton-Berrydale,11295,1047,9269.59,65,575.48,6,53.12,1,8.85,47.3211,-122.0994,22
Lakeland North,12820,1619,12628.71,172,1341.65,18,140.41,2,15.6,47.3292,-122.282,21
Lakeland South,13849,1487,10737.24,134,967.58,14,101.09,1,7.22,47.2716,-122.2819,25
Maple Heights-Lake Desire,3682,452,12275.94,26,706.14,0,0,0,0,47.4522,-122.0985,14
Maple Valley,26180,2861,10928.19,131,500.38,9,34.38,2,7.64,47.3903,-122.0454,18
Medina,3245,566,17442.22,26,801.23,2,61.63,0,0,47.6248,-122.2361,3
Mercer Island,24470,4673,19096.85,162,662.04,15,61.3,5,20.43,47.5707,-122.2221,6
Milton,1195,142,11882.85,5,418.41,1,83.68,2,167.36,47.2482,-122.3129,26
Mirrormont,3717,423,11380.15,9,242.13,0,0,0,0,47.4623,-121.9957,15
Newcastle,12450,1561,12538.15,37,297.19,7,56.22,2,16.06,47.5376,-122.162,9
Normandy Park,6610,1026,15521.94,37,559.76,1,15.13,0,0,47.4362,-122.3407,15
North Bend,6965,1176,16884.42,28,402.01,0,0,0,0,47.4957,-121.7868,20
Pacific,6875,740,10763.64,83,1207.27,12,174.55,2,29.09,47.2645,-122.2501,25
Ravensdale,1873,236,12600.11,15,800.85,0,0,0,0,47.674,-122.1215,3
Redmond,65860,6997,10624.05,329,499.54,72,109.32,48,72.88,47.674,-122.1215,3
Renton,104700,13688,13073.54,1048,1000.96,122,116.52,37,35.34,47.4797,-122.2079,12
Riverbend,2302,270,11728.93,6,260.64,0,0,0,0,47.4665,-121.7504,22
Sammamish,64410,6897,10707.96,224,347.77,9,13.97,7,10.87,47.6163,-122.0356,8
SeaTac,29180,4048,13872.52,518,1775.19,58,198.77,11,37.7,47.4502,-122.3088,14
Seattle,747300,148275,19841.43,4817,644.59,530,70.92,170,22.75,47.6062,-122.3321,7
Shadow Lake,2286,264,11548.56,8,349.96,0,0,0,0,47.4114,-122.0847,17
Shoreline,56370,9346,16579.74,553,981.02,105,186.27,61,108.21,47.756,-122.3457,7
Skykomish,205,31,15121.95,0,0,0,0,0,0,47.7093,-121.3601,34
Snoqualmie,13670,1680,12289.69,64,468.18,2,14.63,0,0,47.5287,-121.8254,18
Tukwila,20930,3334,15929.29,395,1887.24,21,100.33,3,14.33,47.4748,-122.2726,12
Union Hill-Novelty Hill,22034,2043,9272.03,68,308.61,13,59,6,27.23,47.67898,-122.0169,8
Vashon,10036,1514,15085.69,10,99.64,1,9.96,0,0,47.4473,-122.4599,17
White Center,15852,2358,14875.09,273,1722.18,31,195.56,5,31.54,47.5086,-122.3551,12
Wilderness Rim,1457,171,11736.44,4,274.54,1,68.63,0,0,47.441,-121.7709,23
Woodinville,12410,1565,12610.8,77,620.47,11,88.64,1,8.06,47.7543,-122.1635,5
Yarrow Point,1040,217,20865.38,8,769.23,0,0,0,0,47.6462,-122.2173,2
